Elemento generado,Elemento(s) origen,Candidatos,Excluidos,Origen (candidatos - excluidos),Clasificados,Positivos (transformados - falsos positivos),Falsos positivos,Negativos,Falsos negativos
Page,Page,13,0,13,13,13,0,0,0
PresentationObject (input),Elements <form> + JSPActions <html:form>,6,0,6,6,2,0,0,4
PresentationObject (output),JSPActions <bean:write> + JSPActions <html:link>,0,0,0,0,0,0,0,0
ObjectPresentationCollection,JSPActions <...>,3,0,3,3,0,0,0,3
LiteralPresentationCollection,Elements <option> + JSPActions <html:option>,1,0,1,1,0,0,0,1
ObjectRequestParameter,Elements <input> + JSPActions <html:submit> + JSPActions <html:param>,5,0,5,5,0,0,0,5
ValueRequestParameter,JSPActions <html:param>,0,0,0,0,0,0,0,0
LiteralItem,Elements <option> + JSPActions <html:option>,1,0,1,1,0,0,0,1
Request,Elements <a> + Elements <input> + JSPActions <html:submit> + JSPActions <html:link>,12,0,12,12,2,0,0,10
Data_PA,Elements <input> + JSPActions <...>,20,0,20,20,6,0,0,14
DataSet_PA,Elements <select> + JSPActions <html:select> + JSPActions <logic:iterate>,4,0,4,4,3,0,0,1
Derived_PA,JSPActions <bean:size>,0,0,0,0,0,0,0,0
Submit_PA,Elements <input> + JSPActions <html:submit>,5,0,5,5,0,0,0,5
