Elemento generado,Elemento(s) origen,Candidatos,Excluidos,Origen (candidatos - excluidos),Clasificados,Positivos (transformados - falsos positivos),Falsos positivos,Negativos,Falsos negativos
Page,Page,12,0,12,12,12,0,0,0
PresentationObject (input),Elements <form> + JSPActions <html:form>,2,0,2,2,0,0,0,2
PresentationObject (output),JSPActions <bean:write> + JSPActions <html:link>,4,0,4,4,3,0,0,1
ObjectPresentationCollection,JSPActions <...>,2,0,2,2,1,0,0,1
LiteralPresentationCollection,Elements <option> + JSPActions <html:option>,13,0,13,13,0,0,0,13
ObjectRequestParameter,Elements <input> + JSPActions <html:submit> + JSPActions <html:param>,2,0,2,2,0,0,0,2
ValueRequestParameter,JSPActions <html:param>,0,0,0,0,0,0,0,0
LiteralItem,Elements <option> + JSPActions <html:option>,13,0,13,13,0,0,0,13
Request,Elements <a> + Elements <input> + JSPActions <html:submit> + JSPActions <html:link>,10,4,6,10,1,4,0,5
Data_PA,Elements <input> + JSPActions <...>,30,0,30,30,20,0,0,10
DataSet_PA,Elements <select> + JSPActions <html:select> + JSPActions <logic:iterate>,4,0,4,4,4,0,0,0
Derived_PA,JSPActions <bean:size>,0,0,0,0,0,0,0,0
Submit_PA,Elements <input> + JSPActions <html:submit>,2,0,2,2,0,0,0,2
